1 10 20
100 200 125
201 210 89
900 1000 174
1 50 112
5 80 116
20 20 8
81 808 171
10 202 125
1 2 2
71 75 116
60 83 116
100 121 114
9 91 116
34 35 14
31 32 107
15 55 113
2 8 17
1 4 8
2 3 8
5 50 112
4 8 17
11 224 125
50 58 113
113 121 96
83 84 111
1100 1200 182
1414 1555 172
808 822 135
584 698 145
123 1144 179
32 299 128
2342 8860 262
121 899 179
99 100 26
811 923 179
9999 99999 351
2944 3999 238
10 33 112
5 8 17
1 3 8
2 6 9
1934 9922 262
2341 12953 268
3285 8000 262
38 228 125
94 100 119
45 99 119
50 56 113
70 70 15
70 73 116
1231 9494 262
99 999 179
1230 1500 177
80 81 23
91 91 93
392 400 121
86 89 31
910 992 174
20 21 8
433 499 142
291 930 179
549 1140 179
3 4 8
3 30 112
3 911 179
4 911 179
232 2922 217
3043 3344 199
32 223 125
12 22 21
12 21 21
33 44 110
345 665 145
234 594 144
231 334 144
91 888 179
820 840 135
601 855 171
800 834 135
123 292 128
3123 4055 238
382 600 142
702 945 179
1231 8534 262
1288 8301 262
57 77 116
234 432 144
1 1 1
2 2 2
3 3 8
4 4 3
5 5 6
6 6 9
7 7 17
8 8 4
9 9 20
10 10 7
10 11 15
10 12 15
10 13 15
10 14 18
10 15 18
10 16 18
10 17 18
10 18 21
10 19 21
10 20 21
432 234 144
