1 10 20
100 200 125
201 210 89
900 1000 174
4531 9079 262
8497 9060 247
808 1053 179
99 6762 262
3415 5599 238
2575 5999 238
1234 5678 238
2345 6789 262
3456 7890 262
19932 23495 269
2 192745 383
2345 29832 308
2 25 24
1 100 119
1 1000 179
1 10000 262
1 100000 351
1 999999 525
4963 40292 324
632 633 39
6579 52394 324
234 4524 238
95 99 119
693 6931 262
10295 19395 279
10303 29304 308
3209 23092 279
6920 49013 324
34 69 113
42 59 113
1 3 8
1 2 2
1 5 8
9 19 21
10 29 112
230 502 144
40 603 144
59 2039 182
6913 42044 324
1029 1030 125
4910 5920 236
39502 40239 306
494 2030 182
66 67 28
2941 4203 238
395 3234 217
2 4 8
1 4 8
2 6 9
2 9 20
3 59 113
6920 491305 449
49203 402923 443
392 395 77
6940 38509 324
4293 495918 449
20 839 171
42 4950 238
4929 4092 215
49 490 144
7940 4920 262
693 20405 279
694 3050 217
12 14 18
30 480 144
80 102 119
4938 12938 268
12 59 113
9123 12345 268
567 9809 262
424 1234 182
33 44 110
111 2223 183
229 4958 238
2134 4859 238
3175 9583 262
912 12839 268
1111 22222 279
9123 12381 268
192 12938 268
429 1283 182
5901 91203 351
3918 39183 324
93 123 119
1345 12399 268
957 1249 182
1230 1231 71
911 912 42
696 1247 182
4200 4202 65
582 7449 262
91 3475 217
573 1293 182
48 2391 183
97 5732 238
12 15 18
1239 12389 268
213 2948 217
111 2222 182
91 12345 268
88 90 31
99 101 26
975 1357 182
846 2863 209
1239 99999 351
573 57573 340
669 4020 238
15 42 112
3 18 21
269 387 144
472 4819 238
33 12309 268
99 99 26
100 100 26
10000 1000 262
346 134 144
1 1 1
