...................
----------------------------------------------------------------------
Ran 19 tests in 1.085s

OK
Name             Stmts   Miss Branch BrPart  Cover   Missing
------------------------------------------------------------
Collatz.py          42      0     18      1    98%   68->71
TestCollatz.py      77      0      2      0   100%
------------------------------------------------------------
TOTAL              119      0     20      1    99%
