1 10 20
100 200 125
201 210 89
900 1000 174
1 1 1
77 4 116
43 55 113
18 91 116
17 39 112
22 35 112
12 55 113
90 69 116
48 84 116
9 93 116
9 25 24
401 431 134
361 313 144
800 799 73
531 245 144
157 216 125
935 780 179
779 375 171
230 815 171
716 879 179
835 373 171
602 225 144
357 389 121
812 459 171
132 758 171
993 291 179
545 837 171
329 487 142
466 531 142
379 834 171
174 309 128
3809 9665 262
7494 9395 260
9183 5918 262
7562 5680 262
4533 2663 238
5353 6893 262
2679 7804 262
2725 3655 217
2274 4389 238
6855 7849 257
2918 1475 209
6011 1459 238
3523 5812 238
5618 5463 236
8575 3867 262
7592 5359 262
8225 9324 260
1045 4310 238
6026 6202 262
5078 2720 238
1 999999 525
100 2 119
162312 993203 525
523944 843928 525
69 420 144
420 9 144
1 1 1
6868 989897 525
423 200001 383
32333 215423 383
598 587 119
423 2922 217
89838 683452 509
62501 602501 470
25 72 113
7473 238908 443
6969 4204 262
151 4204 238
634 1000 179
89 900 179
36 72 113
12 325623 443
436543 609742 470
103 79 119
76 43 116
998643 10 525
21 21 8
999999 212121 525
10 21 21
112519 534236 470
232986 549439 470
808 450097 449
885643 420 525
9297 422358 449
666666 888888 525
222 333 144
666 444444 449
2001 382947 443
49283 251293 443
999998 158394 525
93094 103832 341
783934 111234 509
788 222222 386
299 305305 443
515151 435435 470
51 600000 470
111111 121121 349
96 94 106
212 369 144
625 2001 182
289021 747321 509