...............
----------------------------------------------------------------------
Ran 15 tests in 4.895s

OK
Name             Stmts   Miss Branch BrPart  Cover   Missing
------------------------------------------------------------
Collatz.py          28      0     12      0   100%
TestCollatz.py      69      0      2      0   100%
------------------------------------------------------------
TOTAL               97      0     14      0   100%
