.......
----------------------------------------------------------------------
Ran 7 tests in 0.052s

OK
Name             Stmts   Miss Branch BrPart  Cover   Missing
------------------------------------------------------------
Collatz.py          41      0     18      0   100%
TestCollatz.py      52      0      2      0   100%
------------------------------------------------------------
TOTAL               93      0     20      0   100%