.......................
----------------------------------------------------------------------
Ran 23 tests in 1.071s

OK
Name             Stmts   Miss Branch BrPart  Cover   Missing
------------------------------------------------------------
Collatz.py          35      0     10      0   100%
TestCollatz.py     100      0      2      0   100%
------------------------------------------------------------
TOTAL              135      0     12      0   100%
