428442 447338 400
264342 656050 509
896777 235399 525
613312 337795 470
545599 57476 470
140530 894221 525
376568 254035 441
288833 143234 443
83119 20186 351
58779 220222 386
987094 362310 525
405162 829797 509
539314 451594 470
330981 488475 449
546540 120543 470
437101 73439 449
997233 21886 525
177279 923522 525
980472 916384 507
126994 545801 470
946793 968341 414
34421 130468 354
412794 971582 525
737175 196834 509
851665 477920 525
461221 225007 449
421170 366952 449
437133 166690 449
664814 297036 509
89156 466170 449
509652 796408 509
991013 101042 525
571447 681773 509
621106 714428 509
879046 757295 525
642321 406370 509
432647 892778 525
709494 202242 509
717475 928073 525
571849 11974 470
840557 978763 507
55175 189254 383
895835 584232 525
383989 102960 443
407228 50789 443
318165 269226 407
380026 567098 470
96445 37546 351
38703 140599 354
569399 873689 525
119487 513185 470
507756 34448 449
67077 57140 335
967154 993959 458
442938 597678 470
619838 227918 470
313318 750291 509
506252 782593 509
273828 925039 525
982817 514350 525
142296 343049 443
902473 948105 507
704520 74127 509
218816 239631 443
712638 835332 468
922636 756052 525
33861 183399 383
968579 704466 525
491009 740737 509
169247 635811 509
104163 158871 383
379183 51508 443
223378 196423 386
673685 982392 525
720907 150475 509
541614 620082 452
969365 430220 525
882059 81038 525
68968 106392 354
29234 10848 308
65793 666845 509
717637 755791 424
882142 314858 525
407056 8989 443
398897 419680 449
128222 399497 443
886182 185597 525
244280 706649 509
646662 926450 525
860168 931401 476
165967 165967 91
188804 188804 86
794295 794295 150
484842 484842 90
630505 630505 204
624174 624174 134
960722 960722 70
345865 345865 136
856185 856185 282
357833 357833 167
