...................
----------------------------------------------------------------------
Ran 19 tests in 0.093s

OK
Name             Stmts   Miss Branch BrPart  Cover   Missing
------------------------------------------------------------
Collatz.py          51      0     22      0   100%
TestCollatz.py      81      0      0      0   100%
------------------------------------------------------------
TOTAL              132      0     22      0   100%
