1 10 20
100 200 125
201 210 89
900 1000 174
8 9 20
89 98 119
89 89 31
234 2345 183
1 1 1
10 95 116
9864 19874 279
9 99999 351
76 67 116
100 20000 279
90 9278 262
56 987 179
2 1 2
1 2 2
34 34 14
60 7 113
34 4 112
45 6 112
213 34 125
9999 56 262
3453 45 217
4567 54 238
322 3 131
23123 5 279
3455 3433 150
2344 34 183
90 9 116
9 8 20
9999 9 262
45 525 144
5 525 144
1997 1999 51
1999 1997 51
23 232 128
23 23 16
566 565 62
89 345 144
3 3 8
324 342 144
32423 32433 192
32 32 6
34 34 14
56 56 20
78 78 36
9999 9999 92
32 32 6
342 342 126
98 98 26
109 6892 262
6835 6820 182
57838 17897 340
456 789 171
34 789 171
23 7890 262
987 345 179
8765 3456 262
7884 23457 279
37 87 116
887 778 179
678 876 179
3458 89432 351
6781 68912 340
67892 67 340
345 45 144
342 34 144
12 345 144
3242 2322 217
343 222 144
333 444 134
555 666 145
777 888 179
999 1919 182
1010 1111 169
222 222 71
3434 3434 106
1231 123 182
32424 23 308
3444 33 217
2342 234 183
654 654 145
679 253 145
6892 678 262
567 432 142
68992 99999 351
9 99999 351
567 90 144
90 456 144
332 234 144
23466 777 279
1231 3242 217
324 134 131
567 234 144
3242 546 217
234 11111 268
2342 200 183
56 9000 262
5690 123 238
1 1000 179
1000 2000 182
2000 3000 217
3000 4000 238
4000 5000 215
5000 6000 236
7000 8000 252
9000 10000 260
10000 11000 268
11000 12000 250
12000 13000 263
13000 14000 276
15000 16000 271
17000 18000 279
19000 20000 274
1 999999 525
2 999999 525
3 999999 525
4 999999 525
1 999998 525
2 999998 525
