.......................
----------------------------------------------------------------------
Ran 23 tests in 0.675s

OK
Name             Stmts   Miss Branch BrPart  Cover   Missing
------------------------------------------------------------
Collatz.py          37      0     14      0   100%
TestCollatz.py     102      0      2      0   100%
------------------------------------------------------------
TOTAL              139      0     16      0   100%
